<svg width="8" height="6" viewBox="0 0 8 6" fill="none" xmlns="http://www.w3.org/2000/svg">
<path d="M0.799805 1.3999L3.99989 4.5999L7.1998 1.39992" stroke="#146AFF" stroke-width="1.6" stroke-linecap="round" stroke-linejoin="round"/>
</svg>
