<svg width="16" height="14" viewBox="0 0 16 14" fill="none" xmlns="http://www.w3.org/2000/svg">
<path d="M16 1.64293C15.4116 1.89675 14.7713 2.07942 14.1118 2.15056C14.7965 1.74376 15.3093 1.10107 15.5539 0.343086C14.9113 0.725327 14.2074 0.993361 13.4734 1.1353C13.1666 0.807312 12.7955 0.546023 12.3833 0.367713C11.9711 0.189403 11.5266 0.0978929 11.0775 0.0988849C9.26043 0.0988849 7.79906 1.57178 7.79906 3.37926C7.79906 3.63308 7.82983 3.88689 7.87982 4.13109C5.159 3.9888 2.73236 2.68896 1.1191 0.698813C0.825142 1.2009 0.671099 1.77258 0.672996 2.35438C0.672996 3.49271 1.25177 4.49643 2.13436 5.08675C1.61424 5.06626 1.1063 4.9233 0.651845 4.66949V4.70987C0.651845 6.30391 1.77863 7.6249 3.28038 7.92871C2.99841 8.00196 2.70834 8.03942 2.41702 8.04024C2.20358 8.04024 2.00168 8.01909 1.79786 7.99024C2.2132 9.29009 3.42267 10.2342 4.86288 10.265C3.73609 11.1476 2.32472 11.6667 0.792213 11.6667C0.517246 11.6667 0.26343 11.6571 0 11.6263C1.45367 12.5589 3.17846 13.0973 5.03593 13.0973C11.066 13.0973 14.3656 8.10177 14.3656 3.76575C14.3656 3.62346 14.3656 3.48117 14.356 3.33888C14.9944 2.87163 15.5539 2.29285 16 1.64293Z" fill="#146AFF"/>
</svg>
