<svg width="558" height="283" viewBox="0 0 558 283" fill="none" xmlns="http://www.w3.org/2000/svg">
<path opacity="0.15" d="M-162 30C-162 13.4315 -148.569 0 -132 0H528C544.569 0 558 13.4315 558 30V253C558 269.569 544.569 283 528 283H-132C-148.569 283 -162 269.569 -162 253V30Z" fill="url(#paint0_linear)"/>
<defs>
<linearGradient id="paint0_linear" x1="-162" y1="283.003" x2="558" y2="283.003" gradientUnits="userSpaceOnUse">
<stop stop-color="#146AFF"/>
<stop offset="1" stop-color="#146AFF" stop-opacity="0"/>
</linearGradient>
</defs>
</svg>
