<svg width="447" height="491" viewBox="0 0 447 491" fill="none" xmlns="http://www.w3.org/2000/svg">
<path opacity="0.4" fill-rule="evenodd" clip-rule="evenodd" d="M268.985 14.4037C205.041 -2.66354 141.924 35.4724 91.1278 78.3898C44.4621 117.817 10.8632 171.842 10.0142 233.205C9.18459 293.171 44.8051 343.18 86.8799 385.431C134.99 433.743 188.416 486.628 256.068 480.29C329.884 473.374 397.372 422.53 426.39 353.622C453.356 289.585 420.739 221.49 391.544 158.574C363.542 98.2265 332.824 31.443 268.985 14.4037Z" stroke="url(#paint0_linear)" stroke-width="20"/>
<defs>
<linearGradient id="paint0_linear" x1="364.916" y1="39.7807" x2="169.406" y2="464.55" gradientUnits="userSpaceOnUse">
<stop stop-color="#146AFF"/>
<stop offset="1" stop-color="#146AFF" stop-opacity="0"/>
</linearGradient>
</defs>
</svg>
