<svg width="91" height="95" viewBox="0 0 91 95" fill="none" xmlns="http://www.w3.org/2000/svg">
<path opacity="0.4" fill-rule="evenodd" clip-rule="evenodd" d="M48.5668 5.97527C60.6102 5.94954 69.966 15.6094 76.9326 25.5371C83.3326 34.6576 86.76 45.7402 84.0838 56.5891C81.4685 67.1907 72.8946 74.3395 63.5416 79.8208C52.8469 86.0884 41.0059 92.9138 29.3875 88.6438C16.7104 83.9846 7.17017 71.8825 5.23466 58.3917C3.43599 45.8546 12.314 35.38 20.3511 25.658C28.0599 16.3331 36.543 6.00096 48.5668 5.97527Z" stroke="url(#paint0_linear)" stroke-width="10"/>
<defs>
<linearGradient id="paint0_linear" x1="30.5092" y1="5.9737" x2="45.1806" y2="89.9437" gradientUnits="userSpaceOnUse">
<stop stop-color="#146AFF"/>
<stop offset="1" stop-color="#146AFF" stop-opacity="0"/>
</linearGradient>
</defs>
</svg>
