<svg width="229" height="445" viewBox="0 0 229 445" fill="none" xmlns="http://www.w3.org/2000/svg">
<path opacity="0.06" fill-rule="evenodd" clip-rule="evenodd" d="M-9.27818 -89.9932C44.457 -90.6994 79.7464 -36.2183 120.803 -1.51043C158.356 30.235 202.369 57.1792 219.409 103.329C236.808 150.452 227.856 202.03 213.761 250.247C199.286 299.765 177.178 347.143 138.252 380.963C96.8558 416.929 45.0596 451.255 -9.27818 444.03C-62.327 436.976 -89.0097 378.596 -130.839 345.184C-169.976 313.924 -225.447 300.37 -246.224 254.77C-267.852 207.302 -262.271 150.037 -241.572 102.156C-221.912 56.6753 -175.064 33.444 -136.901 1.87642C-95.4959 -32.3734 -62.9874 -89.2873 -9.27818 -89.9932Z" fill="url(#paint0_linear)"/>
<defs>
<linearGradient id="paint0_linear" x1="-15.5" y1="-90" x2="-15.5" y2="445" gradientUnits="userSpaceOnUse">
<stop stop-color="#146AFF"/>
<stop offset="1" stop-color="#146AFF" stop-opacity="0"/>
</linearGradient>
</defs>
</svg>
